{
  "users": [
    {
      "id": 1,
      "username": "admin",
      "password": "admin1234!",
      "email": "admin@example.com",
      "token": "eyJhbGciOiJIUzI1NiIsInR5cCI6IkpXVCJ9.eyJzdWIiOiIxMjM0NTY3ODkwIiwibmFtZSI6IkpvaG4gRG9lIiwiZW1haWwiOiJhZG1pbkBleGFtcGxlLmNvbSIsImlhdCI6MTUxNjIzOTAyMn0.2LEpfjZOOMrw74ZgBVwpf1tML4RhXV0QnJqUyvSu19E"
    }
  ],
  "incident":{
      "items": [
        {
          "id": "a2ed6da1-bf36-4ebb-0879-08dd4f06b5db",
          "caseId": "CASE-0597",
          "address": "27 Alabang-Zapote Road, Alabang, Muntinlupa City, Philippines",
          "severity": 1,
          "severityText": "Medium",
          "crimeType": 3,
          "crimeTypeText": "Corruption",
          "motive": 3,
          "motiveText": "PersonalGain",
          "policeDistrict": 2,
          "policeDistrictText": "Buli",
          "otherMotive": "string",
          "weather": 2,
          "weatherText": "Cloudy",
          "timeStamp": "2024-02-17T07:50:17+00:00"
        },
        {
          "id": "7497d016-158b-4cbe-09e3-08dd4f06b5db",
          "caseId": "CASE-0959",
          "address": "741 Main St, Poblacion, Muntinlupa City, Philippines",
          "severity": 3,
          "severityText": "3",
          "crimeType": 1,
          "crimeTypeText": "Assault",
          "motive": 1,
          "motiveText": "Greed",
          "policeDistrict": 3,
          "policeDistrictText": "Cupang",
          "otherMotive": "string",
          "weather": 1,
          "weatherText": "PartlyCloudy",
          "timeStamp": "2024-02-17T15:58:07+00:00"
        },
        {
          "id": "64d11b0b-9c6b-4070-078b-08dd4f06b5db",
          "caseId": "CASE-0359",
          "address": "79 Rizal Ave, Tunasan, Muntinlupa City, Philippines",
          "severity": 2,
          "severityText": "High",
          "crimeType": 2,
          "crimeTypeText": "Burglary",
          "motive": 2,
          "motiveText": "Jealousy",
          "policeDistrict": 1,
          "policeDistrictText": "Bayanan",
          "otherMotive": "string",
          "weather": 1,
          "weatherText": "PartlyCloudy",
          "timeStamp": "2024-02-17T20:23:38+00:00"
        },
        {
          "id": "1fce3b4a-7a2a-434f-09a1-08dd4f06b5db",
          "caseId": "CASE-0893",
          "address": "421 Main St, Poblacion, Muntinlupa City, Philippines",
          "severity": 3,
          "severityText": "3",
          "crimeType": 2,
          "crimeTypeText": "Burglary",
          "motive": 3,
          "motiveText": "PersonalGain",
          "policeDistrict": 2,
          "policeDistrictText": "Buli",
          "otherMotive": "string",
          "weather": 3,
          "weatherText": "Overcast",
          "timeStamp": "2024-02-17T23:01:21+00:00"
        },
        {
          "id": "c7e9e4a8-301e-4afc-0925-08dd4f06b5db",
          "caseId": "CASE-0769",
          "address": "411 Rizal Ave, Poblacion, Muntinlupa City, Philippines",
          "severity": 1,
          "severityText": "Medium",
          "crimeType": 1,
          "crimeTypeText": "Assault",
          "motive": 2,
          "motiveText": "Jealousy",
          "policeDistrict": 3,
          "policeDistrictText": "Cupang",
          "otherMotive": "string",
          "weather": 1,
          "weatherText": "PartlyCloudy",
          "timeStamp": "2024-02-18T13:16:43+00:00"
        },
        {
          "id": "6a11e375-7fae-4d92-09a9-08dd4f06b5db",
          "caseId": "CASE-0901",
          "address": "422 Alabang-Zapote Road, Bayanan, Muntinlupa City, Philippines",
          "severity": 1,
          "severityText": "Medium",
          "crimeType": 3,
          "crimeTypeText": "Corruption",
          "motive": 1,
          "motiveText": "Greed",
          "policeDistrict": 1,
          "policeDistrictText": "Bayanan",
          "otherMotive": "string",
          "weather": 3,
          "weatherText": "Overcast",
          "timeStamp": "2024-02-18T17:19:26+00:00"
        },
        {
          "id": "4897d2c2-7214-4bd6-08f4-08dd4f06b5db",
          "caseId": "CASE-0720",
          "address": "9 Alabang-Zapote Road, Poblacion, Muntinlupa City, Philippines",
          "severity": 1,
          "severityText": "Medium",
          "crimeType": 3,
          "crimeTypeText": "Corruption",
          "motive": 1,
          "motiveText": "Greed",
          "policeDistrict": 3,
          "policeDistrictText": "Cupang",
          "otherMotive": "string",
          "weather": 1,
          "weatherText": "PartlyCloudy",
          "timeStamp": "2024-02-18T22:41:56+00:00"
        },
        {
          "id": "1ffaf7f4-08ad-4333-064e-08dd4f06b5db",
          "caseId": "CASE-0042",
          "address": "323 National Road, Bayanan, Muntinlupa City, Philippines",
          "severity": 1,
          "severityText": "Medium",
          "crimeType": 1,
          "crimeTypeText": "Assault",
          "motive": 3,
          "motiveText": "PersonalGain",
          "policeDistrict": 2,
          "policeDistrictText": "Buli",
          "otherMotive": "string",
          "weather": 2,
          "weatherText": "Cloudy",
          "timeStamp": "2024-02-19T05:06:51+00:00"
        },
        {
          "id": "990a760c-c9e0-4e91-07b1-08dd4f06b5db",
          "caseId": "CASE-0397",
          "address": "135 National Road, Poblacion, Muntinlupa City, Philippines",
          "severity": 2,
          "severityText": "High",
          "crimeType": 2,
          "crimeTypeText": "Burglary",
          "motive": 3,
          "motiveText": "PersonalGain",
          "policeDistrict": 1,
          "policeDistrictText": "Bayanan",
          "otherMotive": "string",
          "weather": 3,
          "weatherText": "Overcast",
          "timeStamp": "2024-02-19T09:43:56+00:00"
        },
        {
          "id": "4e25a2f4-1f9e-4831-07bc-08dd4f06b5db",
          "caseId": "CASE-0408",
          "address": "919 Rizal Ave, Alabang, Muntinlupa City, Philippines",
          "severity": 1,
          "severityText": "Medium",
          "crimeType": 2,
          "crimeTypeText": "Burglary",
          "motive": 2,
          "motiveText": "Jealousy",
          "policeDistrict": 2,
          "policeDistrictText": "Buli",
          "otherMotive": "string",
          "weather": 3,
          "weatherText": "Overcast",
          "timeStamp": "2024-02-19T13:48:21+00:00"
        },
        {
          "id": "9e8fdb77-ad9f-4a15-0652-08dd4f06b5db",
          "caseId": "CASE-0046",
          "address": "592 National Road, Putatan, Muntinlupa City, Philippines",
          "severity": 1,
          "severityText": "Medium",
          "crimeType": 2,
          "crimeTypeText": "Burglary",
          "motive": 2,
          "motiveText": "Jealousy",
          "policeDistrict": 2,
          "policeDistrictText": "Buli",
          "otherMotive": "string",
          "weather": 2,
          "weatherText": "Cloudy",
          "timeStamp": "2024-02-19T23:28:44+00:00"
        },
        {
          "id": "0493f7a0-c9d9-4b2e-0641-08dd4f06b5db",
          "caseId": "CASE-0029",
          "address": "722 National Road, Bayanan, Muntinlupa City, Philippines",
          "severity": 2,
          "severityText": "High",
          "crimeType": 1,
          "crimeTypeText": "Assault",
          "motive": 3,
          "motiveText": "PersonalGain",
          "policeDistrict": 1,
          "policeDistrictText": "Bayanan",
          "otherMotive": "string",
          "weather": 1,
          "weatherText": "PartlyCloudy",
          "timeStamp": "2024-02-20T09:25:40+00:00"
        },
        {
          "id": "3cc2c057-056a-4626-0969-08dd4f06b5db",
          "caseId": "CASE-0837",
          "address": "956 National Road, Alabang, Muntinlupa City, Philippines",
          "severity": 2,
          "severityText": "High",
          "crimeType": 3,
          "crimeTypeText": "Corruption",
          "motive": 1,
          "motiveText": "Greed",
          "policeDistrict": 3,
          "policeDistrictText": "Cupang",
          "otherMotive": "string",
          "weather": 3,
          "weatherText": "Overcast",
          "timeStamp": "2024-02-20T09:33:48+00:00"
        },
        {
          "id": "db7028f8-f92b-4782-0956-08dd4f06b5db",
          "caseId": "CASE-0818",
          "address": "971 Main St, Poblacion, Muntinlupa City, Philippines",
          "severity": 3,
          "severityText": "3",
          "crimeType": 1,
          "crimeTypeText": "Assault",
          "motive": 3,
          "motiveText": "PersonalGain",
          "policeDistrict": 1,
          "policeDistrictText": "Bayanan",
          "otherMotive": "string",
          "weather": 2,
          "weatherText": "Cloudy",
          "timeStamp": "2024-02-20T16:32:32+00:00"
        },
        {
          "id": "bbeab7e6-9518-43c7-096d-08dd4f06b5db",
          "caseId": "CASE-0841",
          "address": "689 National Road, Tunasan, Muntinlupa City, Philippines",
          "severity": 2,
          "severityText": "High",
          "crimeType": 1,
          "crimeTypeText": "Assault",
          "motive": 3,
          "motiveText": "PersonalGain",
          "policeDistrict": 2,
          "policeDistrictText": "Buli",
          "otherMotive": "string",
          "weather": 3,
          "weatherText": "Overcast",
          "timeStamp": "2024-02-20T19:33:58+00:00"
        },
        {
          "id": "e64252f7-5c0c-4711-080d-08dd4f06b5db",
          "caseId": "CASE-0489",
          "address": "582 National Road, Poblacion, Muntinlupa City, Philippines",
          "severity": 2,
          "severityText": "High",
          "crimeType": 2,
          "crimeTypeText": "Burglary",
          "motive": 2,
          "motiveText": "Jealousy",
          "policeDistrict": 2,
          "policeDistrictText": "Buli",
          "otherMotive": "string",
          "weather": 2,
          "weatherText": "Cloudy",
          "timeStamp": "2024-02-21T00:16:50+00:00"
        },
        {
          "id": "d08c0727-8395-4172-08e6-08dd4f06b5db",
          "caseId": "CASE-0706",
          "address": "882 Magsaysay Blvd, Poblacion, Muntinlupa City, Philippines",
          "severity": 2,
          "severityText": "High",
          "crimeType": 3,
          "crimeTypeText": "Corruption",
          "motive": 2,
          "motiveText": "Jealousy",
          "policeDistrict": 2,
          "policeDistrictText": "Buli",
          "otherMotive": "string",
          "weather": 1,
          "weatherText": "PartlyCloudy",
          "timeStamp": "2024-02-21T19:04:15+00:00"
        },
        {
          "id": "0af1e935-d009-4010-07aa-08dd4f06b5db",
          "caseId": "CASE-0390",
          "address": "465 Main St, Tunasan, Muntinlupa City, Philippines",
          "severity": 3,
          "severityText": "3",
          "crimeType": 1,
          "crimeTypeText": "Assault",
          "motive": 3,
          "motiveText": "PersonalGain",
          "policeDistrict": 2,
          "policeDistrictText": "Buli",
          "otherMotive": "string",
          "weather": 2,
          "weatherText": "Cloudy",
          "timeStamp": "2024-02-21T21:22:18+00:00"
        },
        {
          "id": "ad89f8db-1669-48ab-091a-08dd4f06b5db",
          "caseId": "CASE-0758",
          "address": "929 Rizal Ave, Bayanan, Muntinlupa City, Philippines",
          "severity": 2,
          "severityText": "High",
          "crimeType": 1,
          "crimeTypeText": "Assault",
          "motive": 2,
          "motiveText": "Jealousy",
          "policeDistrict": 3,
          "policeDistrictText": "Cupang",
          "otherMotive": "string",
          "weather": 2,
          "weatherText": "Cloudy",
          "timeStamp": "2024-02-23T11:17:40+00:00"
        },
        {
          "id": "4091e73c-d38c-43ce-0978-08dd4f06b5db",
          "caseId": "CASE-0852",
          "address": "139 Rizal Ave, Tunasan, Muntinlupa City, Philippines",
          "severity": 1,
          "severityText": "Medium",
          "crimeType": 3,
          "crimeTypeText": "Corruption",
          "motive": 1,
          "motiveText": "Greed",
          "policeDistrict": 2,
          "policeDistrictText": "Buli",
          "otherMotive": "string",
          "weather": 3,
          "weatherText": "Overcast",
          "timeStamp": "2024-02-24T00:38:59+00:00"
        },
        {
          "id": "ff04ac8e-a792-4f34-094f-08dd4f06b5db",
          "caseId": "CASE-0811",
          "address": "907 Rizal Ave, Alabang, Muntinlupa City, Philippines",
          "severity": 3,
          "severityText": "3",
          "crimeType": 3,
          "crimeTypeText": "Corruption",
          "motive": 2,
          "motiveText": "Jealousy",
          "policeDistrict": 1,
          "policeDistrictText": "Bayanan",
          "otherMotive": "string",
          "weather": 1,
          "weatherText": "PartlyCloudy",
          "timeStamp": "2024-02-24T16:16:37+00:00"
        },
        {
          "id": "b65ce9c5-0686-48d5-0881-08dd4f06b5db",
          "caseId": "CASE-0605",
          "address": "769 National Road, Putatan, Muntinlupa City, Philippines",
          "severity": 1,
          "severityText": "Medium",
          "crimeType": 3,
          "crimeTypeText": "Corruption",
          "motive": 2,
          "motiveText": "Jealousy",
          "policeDistrict": 1,
          "policeDistrictText": "Bayanan",
          "otherMotive": "string",
          "weather": 2,
          "weatherText": "Cloudy",
          "timeStamp": "2024-02-24T18:54:24+00:00"
        },
        {
          "id": "6f0328df-f587-4796-09fe-08dd4f06b5db",
          "caseId": "CASE-0986",
          "address": "57 Magsaysay Blvd, Poblacion, Muntinlupa City, Philippines",
          "severity": 1,
          "severityText": "Medium",
          "crimeType": 1,
          "crimeTypeText": "Assault",
          "motive": 1,
          "motiveText": "Greed",
          "policeDistrict": 3,
          "policeDistrictText": "Cupang",
          "otherMotive": "string",
          "weather": 2,
          "weatherText": "Cloudy",
          "timeStamp": "2024-02-25T01:04:55+00:00"
        },
        {
          "id": "1230ae7e-5172-4816-09c1-08dd4f06b5db",
          "caseId": "CASE-0925",
          "address": "196 Main St, Tunasan, Muntinlupa City, Philippines",
          "severity": 3,
          "severityText": "3",
          "crimeType": 1,
          "crimeTypeText": "Assault",
          "motive": 2,
          "motiveText": "Jealousy",
          "policeDistrict": 3,
          "policeDistrictText": "Cupang",
          "otherMotive": "string",
          "weather": 2,
          "weatherText": "Cloudy",
          "timeStamp": "2024-02-25T02:16:42+00:00"
        }
      ],
    "pageNumber": 4,
    "totalPages": 42,
    "totalCount": 1000,
    "hasPreviousPage": true,
    "hasNextPage": true
  }
}
